<svg xmlns="http://www.w3.org/2000/svg" width="640" height="360" viewBox="0 0 640 360">
  <g fill="none" fill-rule="evenodd">
    <rect width="640" height="360" fill="#F8E81C"/>
    <text fill="#000000" font-family="Roboto-Regular, Roboto" font-size="36">
      <tspan x="206.19" y="187">Нет картинки</tspan>
    </text>
  </g>
</svg>
